Expoloring the data from the CliRes database
…
Feces samplings

Not all the flocks are sampled 3 times:

> (samplings <- viparc %>% 
+   dplyr::select(farm, flock, completed, sampling) %>% 
+   dplyr::group_by(farm, flock) %>%
+   dplyr::summarise(completed = mean(completed), sampling = sum(sampling, na.rm = TRUE)) %>% 
+   dplyr::ungroup() %>% 
+   dplyr::mutate(completed = completed > 0))
# A tibble: 315 x 4
   farm   flock completed sampling
   <chr>  <int> <lgl>        <int>
 1 75-001     1 TRUE             3
 2 75-001     2 TRUE             3
 3 75-001     3 TRUE             3
 4 75-001     4 TRUE             3
 5 75-001     5 TRUE             3
 6 75-001     6 TRUE             3
 7 75-002     1 TRUE             3
 8 75-002     2 TRUE             3
 9 75-002     3 TRUE             3
10 75-002     4 TRUE             3
# … with 305 more rows
…
