Generating the data from the CliRes database
…
+                 GRIDPACK      = dplyr::na_if(GRIDPACK, "na"),
+                 GRIDPACK      = as.numeric(GRIDPACK),
+                 CONCENTRATION = dplyr::na_if(CONCENTRATION, "NA"),
+                 CONCENTRATION = dplyr::na_if(CONCENTRATION, "na"),
+                 CONCENTRATION = dplyr::recode(CONCENTRATION, S = "500"), # this will ultimately be corrected in CliRes CORRECTION
+                 CONCENTRATION = as.numeric(CONCENTRATION),
+                 CONCENTRATION = ifelse(GRIDUNIT == "IU", CONCENTRATION * esvac[ANTINAME1], CONCENTRATION),
+                 GRIDUNIT      = ifelse(GRIDUNIT == "IU", "MG", GRIDUNIT), # linked to the above line
+                 CONCENTRATION = ifelse(GRIDUNIT == "MG", CONCENTRATION / 1000, CONCENTRATION),
+                 GRIDUNIT      = ifelse(GRIDUNIT == "MG", "G", GRIDUNIT), # linked to the above line
+                 GRIDPACK      = ifelse(GRIDPACKUNIT == "KG", 1000 * GRIDPACK, GRIDPACK),
+                 GRIDPACKUNIT  = ifelse(GRIDPACKUNIT == "KG", "G", GRIDPACKUNIT), # linked to the above line
+                 proportion    = CONCENTRATION / GRIDPACK) %>% 
+   dplyr::select(CODE, ANTINAME1, proportion))
# A tibble: 461 x 3
   CODE  ANTINAME1       proportion
   <chr> <chr>                <dbl>
 1 AB001 colistin          0.000735
 2 AB001 oxytetracycline   0.015   
 3 AB002 oxytetracycline   0.07    
 4 AB002 colistin          0.0098  
 5 AB003 neomycin          0.0795  
 6 AB003 colistin          0.0147  
 7 AB004 oxytetracycline   0.01    
 8 AB005 gentamicin        0.06    
 9 AB005 colistin          0.0245  
10 AB006 doxycycline       0.2     
# … with 451 more rows
…
> tmp <- tempfile()
> download_dropbox(surveillance_data, tmp)

For antimicrobial, disease and chicken data in the surveillance file, we need the following pairs of tabs respectively, that we have to merge:

> antimicrobial <- c("ANTIMICROBIAL", "ANTIMICROBIAL_GridEvent")
> disease <- c("DISEASE", "DISEASE_GridEvent")
> chicks <- c("MID_INOUT", "MID_INOUT_GridEvent")

Reading the data from file:

> (surveillance <- lapply2(c(antimicrobial, disease, chicks, "SAMPLE"),
+                          readxl::read_excel, path = tmp))
$ANTIMICROBIAL
# A tibble: 5,567 x 11
   EVENT USUBJID ANTIMICROBIAL_SEQ STUDYID SITEID FARMCODE FLOCKSEQUENCE WEEKNO ANTIBIOTICNO entry enteredtime        
   <chr> <chr>               <dbl> <chr>   <chr>  <chr>    <chr>          <dbl>        <dbl> <dbl> <dttm>             
 1 FLOCK 75-001                  1 18ZN    75     001      01                 1            1     2 2017-01-31 11:17:24
 2 FLOCK 75-002                  1 18ZN    75     002      01                 1            1     2 2017-02-24 15:46:27
 3 FLOCK 75-003                  1 18ZN    75     003      01                 1            0     2 2017-02-01 12:21:30
 4 FLOCK 75-004                  1 18ZN    75     004      01                 1            1     2 2017-01-31 15:53:38
 5 FLOCK 75-005                  1 18ZN    75     005      01                 1            2     2 2017-01-09 09:21:55
 6 FLOCK 75-006                  1 18ZN    75     006      01                 1            1     2 2017-02-01 14:04:31
 7 FLOCK 75-007                  1 18ZN    75     007      01                 1            1     2 2017-01-26 20:14:44
 8 FLOCK 75-008                  1 18ZN    75     008      01                 1            1     2 2017-01-31 16:56:22
 9 FLOCK 75-009                  1 18ZN    75     009      01                 1            1     2 2017-01-04 15:47:35
10 FLOCK 75-010                  1 18ZN    75     010      01                 1            2     2 2017-01-09 10:56:58
# … with 5,557 more rows

$ANTIMICROBIAL_GridEvent
# A tibble: 1,808 x 15
   ANTIMICROBIAL_SEQ EVENT USUBJID ANTIMICROBIAL_GridEvent_SEQ CODE  INITIAL   AMOUTUSED PACKAGE PACKAGEUNIT  COST ALLFLOCK CHCKENUSEDNO PREVENTION entry enteredtime        
               <dbl> <chr> <chr>                         <dbl> <chr> <chr>         <dbl> <chr>   <chr>       <dbl> <lgl>           <dbl> <lgl>      <dbl> <dttm>             
 1                 1 FLOCK 75-001                            1 AB001 COLITERRA       100 100     G           17000 TRUE               NA TRUE           2 2017-01-31 11:17:24
 2                 1 FLOCK 75-002                            1 AB001 COLITERRA        50 100     G           17000 TRUE               NA TRUE           2 2017-02-24 15:46:27
 3                 1 FLOCK 75-004                            1 AB001 COLITERRA       100 100     G           17000 TRUE               NA TRUE           2 2017-01-31 15:53:38
 4                 1 FLOCK 75-005                            1 AB001 Coliterra       100 100     G           25000 TRUE               NA TRUE           2 2017-01-09 09:21:55
 5                 1 FLOCK 75-006                            1 AB001 COLITERRA       100 100     G           25000 TRUE               NA TRUE           2 2017-02-01 14:04:31
 6                 1 FLOCK 75-007                            1 AB001 Coliterra       100 100     G           32000 TRUE               NA TRUE           2 2017-01-26 20:14:44
 7                 1 FLOCK 75-008                            1 AB001 COLITERRA       600 100     G           25000 TRUE               NA TRUE           2 2017-01-31 16:56:22
 8                 1 FLOCK 75-009                            1 AB001 Coliterra        50 100     G           35000 TRUE               NA TRUE           2 2017-01-04 15:47:35
 9                 1 FLOCK 75-010                            1 AB001 Coliterra       100 100     G           25000 TRUE               NA TRUE           2 2017-01-09 10:56:58
10                 1 FLOCK 75-011                            1 AB001 Coliterra       100 100     G           15000 TRUE               NA TRUE           2 2017-01-09 09:59:28
# … with 1,798 more rows

$DISEASE
# A tibble: 322 x 9
   EVENT USUBJID DISEASE_SEQ STUDYID SITEID FARMCODE FLOCKSEQUENCE entry enteredtime        
   <chr> <chr>         <dbl> <chr>   <chr>  <chr>    <chr>         <dbl> <dttm>             
 1 FLOCK 75-001            1 18ZN    75     001      01                2 2017-01-31 11:16:13
 2 FLOCK 75-002            1 18ZN    75     002      01                2 2017-02-24 15:45:23
 3 FLOCK 75-003            1 18ZN    75     003      01                2 2017-02-01 12:18:11
 4 FLOCK 75-004            1 18ZN    75     004      01                2 2017-01-31 15:52:40
 5 FLOCK 75-005            1 18ZN    75     005      01                2 2017-01-09 09:20:57
 6 FLOCK 75-006            1 18ZN    75     006      01                2 2017-02-01 14:03:44
 7 FLOCK 75-007            1 18ZN    75     007      01                2 2017-01-26 20:13:38
 8 FLOCK 75-008            1 18ZN    75     008      01                2 2017-01-31 16:55:40
 9 FLOCK 75-009            1 18ZN    75     009      01                2 2017-01-04 15:46:23
10 FLOCK 75-010            1 18ZN    75     010      01                2 2017-01-09 10:54:05
# … with 312 more rows

$DISEASE_GridEvent
# A tibble: 5,565 x 17
   DISEASE_SEQ EVENT USUBJID DISEASE_GridEvent_SEQ  WEEK RESPIRATORY DIARRHOEA CNS   MALAISE LEGLESIONS SUDDENDEATH OTHDISEASE                       CHICKENSICKNO CHICKENDISEASEDEATH CHICKENSUDDENDEATH entry enteredtime        
         <dbl> <chr> <chr>                   <dbl> <dbl> <lgl>       <lgl>     <lgl> <lgl>   <lgl>      <lgl>       <chr>                                    <dbl>               <dbl>              <dbl> <dbl> <dttm>             
 1           1 FLOCK 75-001                      1     1 FALSE       FALSE     FALSE FALSE   FALSE      TRUE        <NA>                                        NA                  NA                  3     2 2017-01-31 11:16:13
 2           1 FLOCK 75-002                      1     1 FALSE       FALSE     FALSE TRUE    FALSE      FALSE       <NA>                                         5                   5                 NA     2 2017-02-24 15:45:23
 3           1 FLOCK 75-003                      1     1 FALSE       FALSE     FALSE FALSE   FALSE      FALSE       CHUOT CAN                                   NA                  19                 NA     2 2017-02-01 12:18:12
 4           1 FLOCK 75-004                      1     1 FALSE       FALSE     FALSE FALSE   FALSE      FALSE       YEU CHET                                    NA                   2                 NA     2 2017-01-31 15:52:40
 5           1 FLOCK 75-005                      1     1 FALSE       TRUE      FALSE TRUE    FALSE      FALSE       <NA>                                        28                   8                 NA     2 2017-01-09 09:20:58
 6           1 FLOCK 75-006                      1     1 FALSE       FALSE     FALSE FALSE   FALSE      FALSE       1 CON BI DE CHET                             2                   3                 NA     2 2017-02-01 14:03:45
 7           1 FLOCK 75-007                      1     1 FALSE       FALSE     FALSE FALSE   FALSE      FALSE       Ga khuyet tat                               NA                   4                 NA     2 2017-01-26 20:13:38
 8           1 FLOCK 75-008                      1     1 FALSE       FALSE     FALSE TRUE    FALSE      FALSE       06 CON CHET KHONG RO NGUYEN NHAN             4                   4                  6     2 2017-01-31 16:55:40
 9           1 FLOCK 75-009                      1     1 FALSE       FALSE     FALSE FALSE   FALSE      FALSE       <NA>                                        NA                  NA                 NA     2 2017-01-04 15:46:23
10           1 FLOCK 75-010                      1     1 FALSE       FALSE     FALSE FALSE   FALSE      FALSE       <NA>                                        NA                  NA                 NA     2 2017-01-09 10:54:05
# … with 5,555 more rows

$MID_INOUT
# A tibble: 322 x 9
   EVENT USUBJID MID_INOUT_SEQ STUDYID SITEID FARMCODE FLOCKSEQUENCE entry enteredtime        
   <chr> <chr>           <dbl> <chr>   <chr>  <chr>    <chr>         <dbl> <dttm>             
 1 FLOCK 75-001              1 18ZN    75     001      01                2 2017-01-31 11:00:56
 2 FLOCK 75-002              1 18ZN    75     002      01                2 2017-02-01 14:25:02
 3 FLOCK 75-003              1 18ZN    75     003      01                2 2017-02-01 12:04:35
 4 FLOCK 75-004              1 18ZN    75     004      01                2 2017-01-31 15:36:13
 5 FLOCK 75-005              1 18ZN    75     005      01                2 2017-01-09 09:05:19
 6 FLOCK 75-006              1 18ZN    75     006      01                2 2017-02-01 13:52:37
 7 FLOCK 75-007              1 18ZN    75     007      01                2 2017-01-26 20:00:20
 8 FLOCK 75-008              1 18ZN    75     008      01                2 2017-01-31 16:41:08
 9 FLOCK 75-009              1 18ZN    75     009      01                2 2017-01-04 15:29:06
10 FLOCK 75-010              1 18ZN    75     010      01                2 2017-01-09 10:36:04
# … with 312 more rows

$MID_INOUT_GridEvent
# A tibble: 5,566 x 19
   MID_INOUT_SEQ EVENT USUBJID MID_INOUT_GridEv…  WEEK CHICKENBOUGHT BUYINGCOST OTHCHICKEN OTHCHICKENSPEC ADDINGCHICKENTOT… CHICKENSELLINGT… SELLINGTOTALKGS CHICKENSELLINGV… OTHCHICKENEX EXREASON  CHICKENEXTOTAL CHICKENTOTAL entry enteredtime        
           <dbl> <chr> <chr>               <dbl> <dbl>         <dbl>      <dbl>      <dbl> <chr>                      <dbl>            <dbl> <lgl>                      <dbl>        <dbl> <chr>              <dbl>        <dbl> <dbl> <dttm>             
 1             1 FLOCK 75-001                  1     1            NA         NA         NA <NA>                          NA               NA NA                            NA            3 CHET DOT…              3          207     2 2017-01-31 11:00:56
 2             1 FLOCK 75-002                  1     1            NA         NA         NA <NA>                          NA               NA NA                            NA            5 CHET BENH              5          500     2 2017-02-01 14:25:02
 3             1 FLOCK 75-003                  1     1            NA         NA         NA <NA>                           0               NA NA                            NA           25 CHUOT CAN             25          381     2 2018-10-29 09:49:51
 4             1 FLOCK 75-004                  1     1            NA         NA         NA <NA>                          NA               NA NA                            NA            2 YEU CHET               2          713     2 2017-01-31 15:36:13
 5             1 FLOCK 75-005                  1     1             8      96000         NA <NA>                           8               NA NA                            NA            8 chết bệnh              8          102     2 2018-10-25 09:33:31
 6             1 FLOCK 75-006                  1     1            NA         NA         NA <NA>                          NA               NA NA                            NA            5 3 CO CHE…              5           97     2 2018-10-25 09:41:55
 7             1 FLOCK 75-007                  1     1            NA         NA         NA <NA>                           0               NA NA                            NA            4 yeu, khu…              4           98     2 2017-01-26 20:00:20
 8             1 FLOCK 75-008                  1     1            NA         NA         NA <NA>                          NA               NA NA                            NA           10 06 CON C…             10          590     2 2017-01-31 16:41:08
 9             1 FLOCK 75-009                  1     1            NA         NA         NA <NA>                          NA               NA NA                            NA           NA <NA>                  NA          153     2 2018-08-26 09:54:30
10             1 FLOCK 75-010                  1     1            NA         NA         NA <NA>                          NA               NA NA                            NA           NA 0                     NA          410     2 2018-08-26 09:55:01
# … with 5,556 more rows

$SAMPLE
# A tibble: 961 x 19
   EVENT  USUBJID SAMPLE_SEQ STUDYID SITEID FARMCODE FLOCKSEQUENCE SAMPLINGDATE        SAMPLINGVISIT BOOTSWAB CLOACALSWAB LIVECHICKEN ESAMPLE ESAMPLESPEC FLOCKPIC FLOCKPIC1 DEVICEINDEX1 entry enteredtime        
   <chr>  <chr>        <dbl> <chr>   <chr>  <chr>    <chr>         <dttm>              <chr>         <lgl>    <lgl>       <lgl>       <lgl>   <lgl>       <lgl>    <chr>     <chr>        <dbl> <dttm>             
 1 Sample 75-001           1 18ZN    75     001      01            2016-10-24 00:00:00 S             TRUE     FALSE       FALSE       FALSE   NA          TRUE     001-S-01  101-0013         2 2016-10-27 15:38:03
 2 Sample 75-002           1 18ZN    75     002      01            2016-10-24 00:00:00 S             TRUE     FALSE       FALSE       FALSE   NA          TRUE     002-S-01  101-0018         2 2016-12-02 08:22:22
 3 Sample 75-003           1 18ZN    75     003      01            2016-10-28 00:00:00 S             TRUE     FALSE       FALSE       FALSE   NA          TRUE     003-S-01  101-0024         2 2016-11-07 16:18:17
 4 Sample 75-004           1 18ZN    75     004      01            2016-10-28 00:00:00 S             TRUE     FALSE       FALSE       FALSE   NA          TRUE     004-S-01  101-0029         2 2016-11-07 16:19:04
 5 Sample 75-005           1 18ZN    75     005      01            2016-11-09 00:00:00 S             TRUE     FALSE       FALSE       FALSE   NA          TRUE     005-S-01  103-0267         2 2016-12-02 08:39:51
 6 Sample 75-006           1 18ZN    75     006      01            2016-11-09 00:00:00 S             TRUE     FALSE       FALSE       FALSE   NA          TRUE     006-S-01  103-0289         2 2016-12-02 08:47:52
 7 Sample 75-007           1 18ZN    75     007      01            2016-11-09 00:00:00 S             TRUE     FALSE       FALSE       FALSE   NA          TRUE     007-S-01  103-0302         2 2016-12-02 08:59:47
 8 Sample 75-008           1 18ZN    75     008      01            2016-11-09 00:00:00 S             TRUE     FALSE       FALSE       FALSE   NA          TRUE     008-S-01  103-0326         2 2016-12-02 09:15:08
 9 Sample 75-009           1 18ZN    75     009      01            2016-11-09 00:00:00 S             TRUE     FALSE       FALSE       FALSE   NA          TRUE     009-S-01  102-0037         2 2016-12-02 09:21:22
10 Sample 75-010           1 18ZN    75     010      01            2016-11-16 00:00:00 S             TRUE     FALSE       FALSE       FALSE   NA          TRUE     010-S-01  102-0042         2 2016-12-02 09:27:39
# … with 951 more rows
…
> (samples <- surveillance$SAMPLE %>%
+ # End sampling of flock 2 of farm 75-013 is duplicated, so we filter it out: CORRECTION
+   dplyr::filter(!(USUBJID == "75-013" & FLOCKSEQUENCE == "02" & SAMPLE_SEQ == 8)) %>% 
+   dplyr::select(USUBJID, FLOCKSEQUENCE, SAMPLINGDATE, SAMPLINGVISIT) %>%
+   assign("tmp", ., 1) %>% # for reuse 4 lines later
+   dplyr::filter(SAMPLINGVISIT == "S") %>% # | gets the date...
+   dplyr::select(-SAMPLINGVISIT) %>%       # | ... of the first week...
+   dplyr::rename(start = SAMPLINGDATE) %>% # | ... of each flock.
+   dplyr::right_join(tmp, c("USUBJID", "FLOCKSEQUENCE")) %>%
+   dplyr::mutate(WEEK     = as.numeric(floor((SAMPLINGDATE - start) / (60 * 60 * 24 * 7)) + 1),
+                 sampling = TRUE) %>% 
+   dplyr::select(-start, -SAMPLINGDATE, -SAMPLINGVISIT) %>% 
+   unique()) # dates of first visits are missing for flock 2 of farm 75-019, THIS NEED TO BE FIXED!!!!!
# A tibble: 957 x 4
   USUBJID FLOCKSEQUENCE  WEEK sampling
   <chr>   <chr>         <dbl> <lgl>   
 1 75-001  01                1 TRUE    
 2 75-002  01                1 TRUE    
 3 75-003  01                1 TRUE    
 4 75-004  01                1 TRUE    
 5 75-005  01                1 TRUE    
 6 75-006  01                1 TRUE    
 7 75-007  01                1 TRUE    
 8 75-008  01                1 TRUE    
 9 75-009  01                1 TRUE    
10 75-010  01                1 TRUE    
# … with 947 more rows
…
